Rで学ぶ計量経済学と機械学習 2 データ整理
…
4.3 列の取り出し

select()関数はデータフレームから条件に合う列を取り出す関数である

基本的にはselect(データフレーム, 列名1, 列名2, ...)のように書く

select(df, クラス, 名前)

## # A tibble: 40 x 2
##    クラス 名前 
##    <chr>  <chr>
##  1 B      逢坂 
##  2 A      荻窪 
##  3 A      茅原 
##  4 B      金元 
##  5 C      原田 
##  6 A      佐倉 
##  7 C      若林 
##  8 A      新田 
##  9 C      神谷 
## 10 B      瀬戸 
## # ... with 30 more rows

4.3.1 除外条件の指定

列名を指定するときに，マイナス（-）をつけると，「その列以外を取り出す」という指定になる

df %>% select(-名前)

## # A tibble: 40 x 4
##    クラス  英語  現文  数学
##    <chr>  <dbl> <dbl> <dbl>
##  1 B         77    67    61
##  2 A         90    86    89
##  3 A         79    81    75
##  4 B         76    75    61
##  5 C         67    66    57
##  6 A         72    84    79
##  7 C         73    71    52
##  8 A         79    81    72
##  9 C         56    69    61
## 10 B         75    64    71
## # ... with 30 more rows

4.3.2 列名を検索して指定

select()の中でcontains()という関数を使うと，「列名に〇〇という言葉を含むものを取り出す」という指定を行うことができる。

df %>% select(contains("文"))

## # A tibble: 40 x 1
##     現文
##    <dbl>
##  1    67
##  2    86
##  3    81
##  4    75
##  5    66
##  6    84
##  7    71
##  8    81
##  9    69
## 10    64
## # ... with 30 more rows
…
4.4.2 rename()を使う

rename()関数を使い，rename(df, 新しい列名 = 古い列名)のように指定すると任意の列の列名のみを変えることができる。

df2 %>% rename(NAME = name)

## # A tibble: 40 x 2
##    class NAME 
##    <chr> <chr>
##  1 B     逢坂 
##  2 A     荻窪 
##  3 A     茅原 
##  4 B     金元 
##  5 C     原田 
##  6 A     佐倉 
##  7 C     若林 
##  8 A     新田 
##  9 C     神谷 
## 10 B     瀬戸 
## # ... with 30 more rows

4.5 行を並べ替える

「点数が低い順に並べ替える」といった操作を行いたい場合，arrange()を使う

df %>% arrange(数学) # 数学の点が低い順（昇順）に並べ替える

## # A tibble: 40 x 5
##    クラス 名前   英語  現文  数学
##    <chr>  <chr> <dbl> <dbl> <dbl>
##  1 C      若林     73    71    52
##  2 C      渡部     45    63    54
##  3 C      徳永     68    62    56
##  4 C      名塚     51    57    56
##  5 C      原田     67    66    57
##  6 C      日高     57    66    59
##  7 C      福園     64    68    60
##  8 B      逢坂     77    67    61
##  9 B      金元     76    75    61
## 10 C      神谷     56    69    61
## # ... with 30 more rows

「高い順に並べ替える」という操作をしたい場合はarrange()の中でdesc()を使う

df %>% arrange(desc(英語)) # 英語の点が高い順（降順）に並べ替える

## # A tibble: 40 x 5
##    クラス 名前   英語  現文  数学
##    <chr>  <chr> <dbl> <dbl> <dbl>
##  1 A      荻窪     90    86    89
##  2 A      赤城     86    74    82
##  3 A      正規     85    81    80
##  4 A      茅原     79    81    75
##  5 A      新田     79    81    72
##  6 B      逢坂     77    67    61
##  7 A      悠木     77    75    74
##  8 B      金元     76    75    61
##  9 A      村川     76    71    81
## 10 B      樋口     76    67    68
## # ... with 30 more rows
…
ただし，この方法では追加したい列の数だけこの記述を繰り返す必要がある。

4.6.2 複数列まとめて追加する

mutate()関数を使うと列の追加をもう少しスマートに記述できて，mutate(df, 新しい列の名前 = 代入したい内容)のように書く。

例えば「英語＋現文」，「英語＋数学」の2つの変数を作り，それぞれ「英国計」「英数計」と名付けることにする。

その場合，次のようにカンマで区切りながら変数を追加していく。

df %>% mutate(英国計 = 英語 + 現文, 
              英数計 = 英語 + 数学)

## # A tibble: 40 x 8
##    クラス 名前   英語  現文  数学 合計点 英国計 英数計
##    <chr>  <chr> <dbl> <dbl> <dbl>  <dbl>  <dbl>  <dbl>
##  1 B      逢坂     77    67    61    205    144    138
##  2 A      荻窪     90    86    89    265    176    179
##  3 A      茅原     79    81    75    235    160    154
##  4 B      金元     76    75    61    212    151    137
##  5 C      原田     67    66    57    190    133    124
##  6 A      佐倉     72    84    79    235    156    151
##  7 C      若林     73    71    52    196    144    125
##  8 A      新田     79    81    72    232    160    151
##  9 C      神谷     56    69    61    186    125    117
## 10 B      瀬戸     75    64    71    210    139    146
## # ... with 30 more rows

4.7 データフレームの連結

4.7.1 横方向の連結

同じ行数の２つのデータフレームを連結したいときはbind_cols()を使う

# データフレームを分割
A <- df %>% select(クラス, 名前)
B <- df %>% select(英語, 現文, 数学)

# データフレームの連結
bind_cols(A,B)

## # A tibble: 40 x 5
##    クラス 名前   英語  現文  数学
##    <chr>  <chr> <dbl> <dbl> <dbl>
##  1 B      逢坂     77    67    61
##  2 A      荻窪     90    86    89
##  3 A      茅原     79    81    75
##  4 B      金元     76    75    61
##  5 C      原田     67    66    57
##  6 A      佐倉     72    84    79
##  7 C      若林     73    71    52
##  8 A      新田     79    81    72
##  9 C      神谷     56    69    61
## 10 B      瀬戸     75    64    71
## # ... with 30 more rows

（ちなみに，同様の機能をもつ関数でcbind()というものもある。）

4.7.2 縦方向の連結

同じ列数の２つのデータフレームを連結したいときはbind_rows()を使う

# データフレームを分割
A <- df[1:20, ]   # 第1~20行
B <- df[21:40, ]  # 第21~40行

# データフレームの連結
bind_rows(A,B)

## # A tibble: 40 x 6
##    クラス 名前   英語  現文  数学 合計点
##    <chr>  <chr> <dbl> <dbl> <dbl>  <dbl>
##  1 B      逢坂     77    67    61    205
##  2 A      荻窪     90    86    89    265
##  3 A      茅原     79    81    75    235
##  4 B      金元     76    75    61    212
##  5 C      原田     67    66    57    190
##  6 A      佐倉     72    84    79    235
##  7 C      若林     73    71    52    196
##  8 A      新田     79    81    72    232
##  9 C      神谷     56    69    61    186
## 10 B      瀬戸     75    64    71    210
## # ... with 30 more rows
…
